﻿7*,700,0.55,0.55/SMS
7*,701,0.5,0.5/SMS
7*,702,0.45,0.45/SMS
33*,705,0.8,0.8/SMS
33*,706,0.55,0.55/SMS
994*,708,1.78,1.78/SMS
49*,753,0.88,0.88/SMS
420*,751,0.88,0.88/SMS
421*,897,0.88,0.88/SMS
7*,948,0.44,0.44/SMS
1*,927,0.7,0.7/SMS
998*,938,0.5,0.5/SMS
373*,859,1.43,1.43/SMS
82*,1031,5,5/SMS
86*,749,1,1/SMS
996*,837,0.5,0.5/SMS
375*,735,1.38,1.38/SMS
375*,736,1.38,1.38/SMS
77*,703,0.5,0.5/SMS
90*,909,0.32,0.32/SMS
971*,718,3.95,3.95/SMS
996*,836,0.5,0.5/SMS
93*,710,4.4,4.4/SMS
993*,967,2.75,2.75/SMS
966*,892,4.62,4.62/SMS
98*,1049,2.31,2.31/SMS
381*,944,2.17,2.17/SMS
380*,921,2.82,2.82/SMS
32*,729,2.45,2.45/SMS
256*,1044,1.51,1.51/SMS
1*,935,2.75,2.75/SMS
420*,1032,0.32,0.32/SMS
353*,1035,0.32,0.32/SMS
27*,1039,0.32,0.32/SMS
61*,723,3.85,3.85/SMS
40*,1038,0.32,0.32/SMS
93*,711,4.4,4.4/SMS
31*,969,0.32,0.32/SMS
77*,946,0.5,0.5/SMS
375*,1054,1.38,1.38/SMS
352*,850,2.48,2.48/SMS
77*,947,0.66,0.66/SMS
995*,768,1.6,1.6/SMS
44*,766,0.32,0.32/SMS
996*,838,2.42,2.42/SMS
374*,721,1.1,1.1/SMS
233*,1053,0.32,0.32/SMS
356*,972,0.32,0.32/SMS
355*,715,2.15,2.15/SMS
374*,720,1.1,1.1/SMS
998*,1058,3,3/SMS
94*,1026,1.21,1.21/SMS
33*,1029,3.96,3.96/SMS
380*,916,3.48,3.48/SMS
882*,1048,9.84,9.84/SMS
32*,1047,1.68,1.68/SMS
963*,902,10.2,10.2/SMS
994*,726,1.8,1.8/SMS
962*,973,6.5,6.5/SMS
380*,920,0.5,0.5/SMS
39*,831,4.5,4.5/SMS
355*,1052,0.32,0.32/SMS
852*,775,5,5/SMS
63*,877,3,3/SMS
20*,757,4.5,4.5/SMS
886*,1065,3.5,3.5/SMS
994*,727,3.5,3.5/SMS
49*,1033,0.32,0.32/SMS
30*,968,0.32,0.32/SMS
39*,1036,0.32,0.32/SMS
40*,1069,4,4/SMS
93*,712,8,8/SMS
374*,719,0.5,0.5/SMS
358*,1059,0.5,0.5/SMS
64*,1020,0.32,0.32/SMS
41*,745,5.5,5.5/SMS
971*,717,8,8/SMS
974*,884,8,8/SMS
965*,841,8,8/SMS
54*,1042,9,9/SMS
886*,912,4.5,4.5/SMS
98*,825,5,5/SMS
91*,822,5.5,5.5/SMS
213*,755,8.5,8.5/SMS
1*,1073,1.5,1.5/SMS
48*,883,4.5,4.5/SMS
34*,760,7,7/SMS
7*,888,2.5,2.5/SMS
356*,862,5,5/SMS
36*,1056,0.32,0.32/SMS
20*,1071,9.5,9.5/SMS
216*,905,13,13/SMS
91*,1022,6,6/SMS
94*,1030,2.5,2.5/SMS
967*,942,5.5,5.5/SMS
91*,1040,6,6/SMS
212*,856,10.5,10.5/SMS
91*,793,2,2/SMS
91*,784,2,2/SMS
91*,783,2,2/SMS
973*,971,3,3/SMS
62*,780,3,3/SMS
966*,893,2,2/SMS
60*,866,0.7,0.7/SMS
1*,744,1.5,1.5/SMS
81*,833,1.5,1.5/SMS
1*,1060,5,5/SMS
86*,748,0.7,0.7/SMS
43*,725,8,8/SMS
251*,1077,8,8/SMS
998*,936,1,1/SMS
93*,713,9,9/SMS
966*,891,7,7/SMS
7*,890,0.35,0.35/SMS
972*,1078,12.5,12.5/SMS
354*,1066,5,5/SMS
968*,1076,2,2/SMS
7*,1080,2,2/SMS
62*,1079,2.5,2.5/SMS
373*,1082,2,2/SMS
852*,997,1.5,1.5/SMS
972*,829,1.5,1.5/SMS
65*,895,1.5,1.5/SMS
34*,1034,0.32,0.32/SMS
351*,1037,0.32,0.32/SMS
974*,1021,6,6/SMS
82*,840,5,5/SMS
371*,707,4,4/SMS
92*,875,5,5/SMS
98*,823,6,6/SMS
48*,881,5.5,5.5/SMS
94*,846,5.5,5.5/SMS
230*,974,2.5,2.5/SMS
46*,900,5,5/SMS
357*,1067,3,3/SMS
852*,994,8,8/SMS
91*,788,2,2/SMS
91*,791,2,2/SMS
91*,815,2,2/SMS
91*,816,2,2/SMS
91*,819,2,2/SMS
91*,818,2,2/SMS
91*,796,2,2/SMS
91*,801,2,2/SMS
52*,998,6,6/SMS
593*,1087,6,6/SMS
39*,1084,6,6/SMS
372*,762,5,5/SMS
371*,852,5,5/SMS
370*,847,5,5/SMS
46*,899,6,6/SMS
27*,1017,3,3/SMS
886*,913,6,6/SMS
359*,733,6,6/SMS
598*,1085,4,4/SMS
56*,1086,5.5,5.5/SMS
20*,756,15,15/SMS
212*,1089,9.5,9.5/SMS
30*,1088,6.5,6.5/SMS
49*,995,9.5,9.5/SMS
